<?xml version="1.0" encoding="utf-8"?>
<!-- Generator: Adobe Illustrator 23.1.0, SVG Export Plug-In . SVG Version: 6.00 Build 0)  -->
<svg version="1.1" id="Layer_1" xmlns="http://www.w3.org/2000/svg" xmlns:xlink="http://www.w3.org/1999/xlink" x="0px" y="0px"
	 width="40px" height="40px" viewBox="0 0 40 40" enable-background="new 0 0 40 40" xml:space="preserve">
<path fill="#FFFFFF" d="M36,17.5c-0.4-2.5-3.2-4-7-4.6c0-0.4,0-0.8,0.1-1.2c0-3.5-1-5.8-2.9-6.6c-1-0.4-2.6-0.5-4.8,1.1
	c-0.6,0.4-0.6,1.2-0.2,1.7c0.4,0.5,1.2,0.6,1.7,0.2c1-0.8,1.9-1.1,2.5-0.8c0.9,0.3,1.4,2,1.4,4.3c0,0.3,0,0.6,0,0.9
	c-1.1-0.1-2.2-0.1-3.3,0C19.1,8.2,13.7,5,10.7,7.3c-2,1.5-1.9,4.7-0.5,8.3c-0.4,0.2-0.7,0.4-1.1,0.6c-3,1.7-4.5,3.8-4.3,5.8
	C5,23,5.7,24.6,8.5,25.7c0.6,0.2,1.3-0.1,1.6-0.7c0.2-0.6-0.1-1.3-0.7-1.6c-1.3-0.5-2.1-1.2-2.2-1.8c-0.1-0.9,1-2.2,3-3.3
	c0.3-0.2,0.6-0.3,0.9-0.5c0.5,1,1,1.9,1.6,2.9c-1.7,5.9-1.8,12.3,1.7,13.7c1.6,0.6,3.3,0.1,5-1.3c0.8-0.7,1.7-1.5,2.5-2.5
	c3.2,2.2,6.2,3.1,8.2,1.5c0.9-0.7,1.9-2.2,1.4-5.3c-0.1-0.7-0.7-1.1-1.4-1c-0.7,0.1-1.1,0.7-1,1.4c0.2,1.5,0.1,2.6-0.5,3
	c-0.8,0.6-2.8,0.1-5.3-1.6c0.6-0.9,1.2-1.8,1.7-2.8c3.3-0.8,6.4-2.1,8.5-3.7C35.2,20.7,36.2,19.2,36,17.5z M12.4,14.6
	c-1-2.8-1-4.8-0.2-5.4c1.1-0.9,4.3,0.3,7.9,3.6c-0.2,0-0.4,0.1-0.6,0.1C16.9,13.3,14.5,13.9,12.4,14.6z M15.3,32.1
	c-1.3-0.5-1.9-3.9-0.8-8.8c0.2,0.2,0.3,0.4,0.5,0.6c1.5,1.9,3.2,3.7,5,5.2C18,31.4,16.3,32.5,15.3,32.1z M24.4,21.4
	c-0.9,2.3-2,4.2-3,5.8c-1.4-1.2-3-2.8-4.5-4.7c-1.5-2-2.7-3.9-3.6-5.6c1.9-0.7,4.1-1.2,6.4-1.6c2.4-0.3,4.6-0.4,6.5-0.3
	C25.9,17,25.3,19.2,24.4,21.4z M26.4,22.9c0.1-0.2,0.2-0.4,0.3-0.6c1-2.4,1.6-4.8,2-7c3,0.5,4.8,1.5,4.9,2.5
	C33.8,19.2,31.1,21.4,26.4,22.9z"/>
</svg>
