<svg  xmlns="http://www.w3.org/2000/svg"  x="0px" y="0px" viewBox="0 0 200 230">
<g id="text">
<path fill="#FFFFFF" d="M20.5,180.7l0.2,5.1h-0.6c-0.1-0.9-0.3-1.6-0.5-2c-0.3-0.6-0.8-1.1-1.3-1.4c-0.6-0.3-1.3-0.4-2.2-0.4h-3
v16.6c0,1.4,0.1,2.2,0.4,2.6c0.4,0.5,1.1,0.7,1.9,0.7h0.8v0.6H6.9V202h0.8c0.9,0,1.6-0.3,2-0.9c0.2-0.3,0.4-1.1,0.4-2.4v-16.6H7.4
c-1,0-1.8,0.1-2.2,0.2c-0.6,0.2-1.1,0.6-1.5,1.2c-0.4,0.6-0.6,1.4-0.7,2.4H2.4l0.3-5.1L20.5,180.7L20.5,180.7z"/>
<path fill="#FFFFFF" d="M28.3,190.9h10.1v-6.2c0-1.1-0.1-1.9-0.2-2.2c-0.1-0.3-0.3-0.5-0.7-0.7c-0.5-0.3-1-0.4-1.5-0.4h-0.8v-0.6
h9.3v0.6h-0.8c-0.5,0-1,0.1-1.5,0.4c-0.3,0.2-0.6,0.4-0.7,0.8c-0.1,0.4-0.2,1.1-0.2,2.2v14.1c0,1.1,0.1,1.9,0.2,2.2
c0.1,0.3,0.3,0.5,0.7,0.7c0.5,0.3,1,0.4,1.5,0.4h0.8v0.6h-9.3v-0.6H36c0.9,0,1.6-0.3,2-0.8c0.3-0.3,0.4-1.2,0.4-2.5v-6.7H28.3v6.7
c0,1.1,0.1,1.9,0.2,2.2s0.3,0.5,0.7,0.7c0.5,0.3,1,0.4,1.5,0.4h0.8v0.6h-9.3v-0.6H23c0.9,0,1.6-0.3,2-0.8c0.3-0.3,0.4-1.2,0.4-2.5
v-14.1c0-1.1-0.1-1.9-0.2-2.2s-0.3-0.5-0.7-0.7c-0.5-0.3-1-0.4-1.5-0.4h-0.8v-0.6h9.3v0.6h-0.8c-0.5,0-1,0.1-1.5,0.4
c-0.3,0.2-0.6,0.4-0.7,0.8c-0.1,0.4-0.2,1.1-0.2,2.2V190.9z"/>
<path fill="#FFFFFF" d="M52.2,181.9v8.7H57c1.3,0,2.1-0.2,2.5-0.6c0.6-0.5,0.9-1.4,0.9-2.6H61v7.6h-0.5c-0.2-1.1-0.3-1.8-0.5-2.1
c-0.2-0.4-0.5-0.7-1-0.9c-0.4-0.2-1.1-0.3-2.1-0.3h-4.8v7.2c0,1,0,1.6,0.1,1.8s0.2,0.4,0.5,0.5c0.2,0.1,0.6,0.2,1.2,0.2h3.7
c1.3,0,2.2-0.1,2.7-0.3c0.6-0.2,1.1-0.5,1.6-1c0.7-0.7,1.4-1.7,2.1-3h0.7l-1.9,5.5H46V202h0.8c0.5,0,1-0.1,1.5-0.4
c0.3-0.2,0.6-0.4,0.7-0.8c0.1-0.3,0.2-1.1,0.2-2.1v-14.2c0-1.4-0.1-2.3-0.4-2.6c-0.4-0.4-1-0.7-2-0.7H46v-0.6h16.8l0.2,4.8h-0.6
c-0.2-1.2-0.5-2-0.8-2.4s-0.7-0.8-1.2-1c-0.4-0.2-1.2-0.2-2.3-0.2L52.2,181.9L52.2,181.9z"/>
<path fill="#FFFFFF" d="M95.9,202.6h-5.8l-7.4-10.2c-0.6,0-1,0-1.4,0c-0.1,0-0.3,0-0.5,0s-0.3,0-0.5,0v6.3c0,1.4,0.2,2.3,0.5,2.6
c0.4,0.5,1,0.7,1.9,0.7h0.9v0.6h-9.4V202H75c0.9,0,1.6-0.3,2-0.9c0.2-0.3,0.3-1.1,0.3-2.4v-14.1c0-1.4-0.2-2.3-0.5-2.6
c-0.4-0.5-1.1-0.7-1.9-0.7h-0.7v-0.6h8c2.4,0,4,0.2,5.1,0.5s2.1,1,2.8,1.9c0.8,0.9,1.2,2,1.2,3.2c0,1.4-0.4,2.5-1.3,3.4
s-2.3,1.7-4,2.1l4.5,6.3c1,1.5,1.9,2.4,2.7,2.9c0.8,0.5,1.7,0.8,2.9,0.9C95.9,201.9,95.9,202.6,95.9,202.6z M80.4,191.3
c0.2,0,0.4,0,0.5,0c0.2,0,0.3,0,0.4,0c2.1,0,3.6-0.5,4.7-1.4s1.6-2.1,1.6-3.4c0-1.4-0.4-2.5-1.3-3.3c-0.9-0.9-2-1.3-3.3-1.3
c-0.6,0-1.5,0.1-2.6,0.3C80.4,182.2,80.4,191.3,80.4,191.3z"/>
<path fill="#FFFFFF" d="M105.8,202v0.6h-9.3V202h0.8c0.9,0,1.6-0.3,2-0.8c0.3-0.3,0.4-1.2,0.4-2.5v-14.1c0-1.1-0.1-1.9-0.2-2.2
s-0.3-0.5-0.7-0.7c-0.5-0.3-1-0.4-1.5-0.4h-0.8v-0.6h9.3v0.6H105c-0.9,0-1.6,0.3-2,0.8c-0.3,0.3-0.4,1.2-0.4,2.5v14.1
c0,1.1,0.1,1.9,0.2,2.2s0.3,0.5,0.7,0.7c0.5,0.3,1,0.4,1.5,0.4H105.8z"/>
<path fill="#FFFFFF" d="M129.9,180.7v0.6c-0.8,0.1-1.4,0.4-1.8,0.8c-0.6,0.5-1.1,1.4-1.5,2.5l-7.6,18.6h-0.6l-8.2-18.8
c-0.4-1-0.7-1.6-0.9-1.8c-0.3-0.3-0.6-0.6-1-0.8s-0.9-0.3-1.6-0.4v-0.6h8.9v0.6c-1,0.1-1.7,0.3-2,0.5c-0.3,0.3-0.5,0.6-0.5,1
c0,0.5,0.3,1.4,0.8,2.6l5.5,12.8l5.1-12.6c0.5-1.3,0.8-2.1,0.8-2.6c0-0.3-0.2-0.6-0.5-0.9c-0.3-0.3-0.9-0.5-1.6-0.6
c-0.1,0-0.1,0-0.3,0V181h6.7v-0.3H129.9z"/>
<path fill="#FFFFFF" d="M141.2,195.2h-8.5l-1.5,3.4c-0.4,0.9-0.6,1.5-0.6,1.9c0,0.3,0.2,0.6,0.5,0.9c0.3,0.3,1,0.4,2.1,0.5v0.6
h-6.9v-0.6c0.9-0.2,1.5-0.4,1.8-0.6c0.6-0.5,1.2-1.6,1.8-3.1l7.7-17.9h0.6l7.6,18.1c0.6,1.5,1.2,2.4,1.7,2.9
c0.5,0.4,1.2,0.7,2.1,0.7v0.6H141V202c0.9,0,1.5-0.2,1.8-0.4c0.3-0.3,0.5-0.6,0.5-0.9c0-0.5-0.2-1.2-0.7-2.3L141.2,195.2z
M140.8,194l-3.7-8.8l-3.8,8.8H140.8z"/>
<path fill="#FFFFFF" d="M149.5,180.7h5.9l13.4,16.3v-12.6c0-1.4-0.2-2.2-0.5-2.6c-0.4-0.5-1-0.7-1.9-0.7h-0.8v-0.6h7.6v0.6h-0.8
c-0.9,0-1.6,0.3-2,0.9c-0.2,0.3-0.4,1.1-0.4,2.4v18.4h-0.5l-14.4-17.6v13.5c0,1.4,0.1,2.2,0.4,2.6c0.4,0.5,1.1,0.7,1.9,0.7h0.8v0.6
h-7.6V202h0.8c0.9,0,1.6-0.3,2-0.9c0.2-0.3,0.4-1.1,0.4-2.4v-15.1c-0.6-0.8-1.1-1.2-1.5-1.5c-0.3-0.2-0.8-0.5-1.5-0.7
c-0.3-0.1-0.8-0.1-1.4-0.1L149.5,180.7L149.5,180.7z"/>
<path fill="#FFFFFF" d="M188.7,195.2h-8.5l-1.5,3.4c-0.4,0.9-0.6,1.5-0.6,1.9c0,0.3,0.2,0.6,0.5,0.9c0.3,0.3,1,0.4,2.1,0.5v0.6
h-6.9v-0.6c0.9-0.2,1.5-0.4,1.8-0.6c0.6-0.5,1.2-1.6,1.8-3.1l7.7-17.9h0.6l7.6,18.1c0.6,1.5,1.2,2.4,1.7,2.9
c0.5,0.4,1.2,0.7,2.1,0.7v0.6h-8.6V202c0.9,0,1.5-0.2,1.8-0.4c0.3-0.3,0.5-0.6,0.5-0.9c0-0.5-0.2-1.2-0.7-2.3L188.7,195.2z
M188.3,194l-3.7-8.8l-3.8,8.8H188.3z"/>
</g>
<g id="pei-04">
<path fill="#FFFFFF" d="M133,92l-2.4,0.9v46.9c1.4,0,2.8,0.1,4.1,0.1V93.5L133,92z"/>
<path fill="#FFFFFF" d="M124.1,87.3v-7.9l-3.1-2.9l-2.1,0.9v61.7c2.3,0.3,8.1,0.5,11.2,0.5V92.8L124.1,87.3z"/>
<path fill="#FFFFFF" d="M83.4,95.8l-3.9,1.5v36.5c1.6,0.2,4,0.5,5.2,0.7V97L83.4,95.8z"/>
<path fill="#FFFFFF" d="M113.3,73.1v-9.9l-3.4-3v78c2.8,0.4,5.4,0.7,8.2,1.1l0,0V77.5L113.3,73.1z"/>
<path fill="#FFFFFF" d="M85.2,97v37.5c2.9,0.4,5.8,0.9,8.6,1.4V93.7L85.2,97"/>
<path fill="#FFFFFF" d="M95,65.6v70.5c1.1,0.2,2.2,0.3,3.3,0.4V64.4L95,65.6z"/>
<path fill="#FFFFFF" d="M106,61.6v76c0.7,0.1,2.2,0.3,3.6,0.5V60.4L106,61.6z"/>
<path fill="#FFFFFF" d="M99.4,61.5v75.2c1.8,0.2,3.5,0.4,5.4,0.7V59.5L99.4,61.5z"/>
</g>
<g id="pei-03">
<path fill="#FFFFFF" d="M78.4,133.6c-1.6-0.9-3.1-2-5.2-3.8c-3.2-2.8-4.9-4.3-7.7-8.2c-2.8-3.8-4.1-6-5.9-10.8
c-1.8-4.8-2.7-7.9-2.9-13.2c-0.3-5.3-0.2-8.8,1-14c1.3-5.1,2.7-8.8,5-13.3c2.3-4.5,4.7-7.5,8.2-10.9c3.4-3.4,6.7-5.9,10.5-8.3
c3.9-2.4,7.6-3.8,11.5-5c-0.2,0-0.6,0-1,0.1c-0.4,0-0.9,0.1-1.5,0.3c-0.6,0.1-1.2,0.3-2,0.5c-0.7,0.2-1.5,0.4-2.4,0.8
c-0.9,0.3-1.8,0.7-2.8,1.1c-1,0.4-2,0.9-3,1.5c-1.1,0.6-2.1,1.2-3.2,1.9c-1.2,0.7-2.2,1.4-3.3,2.3c-1.2,0.9-2.3,1.7-3.3,2.7
c-1.1,1-2.2,2.1-3.3,3.2c-1.2,1.2-2.1,2.3-3.1,3.6c-1.1,1.3-1.9,2.6-2.9,4c-1,1.5-1.7,2.9-2.6,4.4c-0.8,1.6-1.5,3-2.2,4.8
c-0.7,1.7-1.2,3.2-1.7,5s-0.8,3.3-1.2,5.2c-0.3,1.9-0.5,3.4-0.6,5.3s-0.1,3.4,0,5.3s0.3,3.5,0.6,5.3c0.4,2.9,0.9,4,1.3,5.8
c0.5,1.8,1,2.9,1.6,4.6c0.7,1.7,1.3,2.9,2.1,4.5s1.5,2.8,2.3,4s4,5.4,4.9,6.4c0.8,0.8,3.5,3.8,3.7,4
C71.9,133.1,74.9,133.3,78.4,133.6z"/>
<path fill="#FFFFFF" d="M68.1,132.5c-0.7-0.6-0.6-0.6-1.2-1.2c-1.3-1.3-2.3-2.4-3.5-4c-1.3-1.6-2.2-3.1-3.4-4.9
c-1.2-1.9-2-3.4-2.9-5.6c-1-2.1-1.8-3.9-2.5-6.3s-1.3-4.4-1.7-6.8c-0.4-2.6-0.6-4.9-0.8-7.4c-0.1-2.7,0.1-5,0.4-7.6
s0.9-5.1,1.5-7.6c0.7-2.7,1.7-5,2.7-7.5c1.1-2.5,2.4-4.8,3.8-7.1c1.4-2.3,3-4.4,4.8-6.4C67,58,69,56.2,71,54.4
c2-1.8,4.2-3.3,6.3-4.7c2.2-1.4,4.5-2.8,6.8-3.7c2.3-1,4.7-2.1,7-2.8s4.7-1.3,6.8-1.7c2.2-0.4,4.7-0.8,6.7-0.9
c2.1-0.1,4.3-0.2,6.2-0.1c1.9,0.1,4,0.2,5.6,0.4c1.7,0.2,3.3,0.5,4.7,0.8c1.4,0.3,3.2,0.9,4.3,1.2c0.8,0.3,2.4,0.8,3.2,1.1
c1.1,0.4,4.2,1.6,4.2,1.6s-2.3-1.4-3.8-2.1c-1.9-0.9-7-2.6-8.2-2.9c-1.2-0.3-8.1-1.3-11.3-1.3c-6.3,0-20.2,1.2-30.2,7.1
c-1.9,1.2-6.3,3.7-8.4,5.2C67.9,53.8,62.3,59,58.8,64c-1.3,1.9-4.9,8.4-6.2,11.4c-1.5,3.6-3.4,10-3.8,15.2
c-0.2,2.2-0.2,5.7-0.1,7.2c0.2,3,1,7.9,1.7,10.8c0.3,1.4,1.2,4.4,1.9,5.9c0.6,1.7,1.2,2.7,1.9,4.2c0.7,1.5,1.4,2.8,2,4.1
c0.8,1.2,1.6,2.6,2.2,3.4c0.5,0.7,4.4,6.1,4.4,6.1S66.9,132.4,68.1,132.5z"/>
<path fill="#FFFFFF" d="M58.7,132.2c0,0,2.2-0.1,3.3,0c-0.4-0.5-0.9-1-1.3-1.5c-0.7-0.8-1.4-1.8-2.1-2.8c-0.7-1-1.5-2.2-2.3-3.4
c-0.8-1.3-1.6-2.7-2.3-4.1c-0.7-1.4-1.5-3.1-2.1-4.8c-0.7-1.7-1.3-3.5-1.8-5.4s-1-4-1.3-6.1c-0.3-2.1-0.5-4.3-0.6-6.5
c-0.1-2.2,0-4.6,0.2-6.8c0.2-2.3,0.6-4.8,1.1-7.1s1.3-4.7,2-7s2-4.8,3-7c1.1-2.2,2.6-4.6,3.9-6.6s3.1-4.1,4.7-5.9s3.7-3.8,5.5-5.4
c1.8-1.5,4.1-3.3,6.1-4.5c2-1.2,4.3-2.6,6.3-3.5c2-0.9,4.7-2.2,6.8-2.8c2.1-0.7,4.5-1.4,6.6-1.9c2-0.5,4.5-0.8,6.4-1.1
c1.9-0.2,4.3-0.3,6.1-0.4c1.8-0.1,4.1,0.1,5.7,0.2c1.7,0.1,3.7,0.5,5.2,0.7c1.5,0.2,3.4,0.7,4.6,1s2.7,0.8,3.6,1.1
c1,0.3,2.2,0.8,2.9,1.1c0.8,0.3,1.8,0.7,2.3,0.9s0.9,0.4,1.2,0.5c0.3,0.1,0.4,0.2,0.4,0.2s-0.2-0.1-0.5-0.3
c-0.3-0.2-1.2-0.6-1.9-0.9c-0.7-0.3-1.8-0.8-2.8-1.2c-1-0.4-2.7-1.1-4-1.5c-1.3-0.4-3.2-1-4.8-1.4c-1.8-0.4-4.1-0.7-6-0.9
c-1.9-0.2-4.7-0.3-6.9-0.3c-2.2,0-5.1,0.4-7.4,0.6c-2.4,0.2-5.7,1-8.2,1.6c-2.5,0.6-5.8,1.8-8.4,2.9c-2.6,1.1-5.7,2.8-8.2,4.2
c-2.5,1.4-5.7,3.9-8,5.9c-2.2,2-4.9,4.7-6.9,7.1c-2,2.4-4.4,5.8-5.9,8.6c-1.5,2.8-3.2,6.3-4.2,9.2c-1.1,2.9-2.1,6.8-2.7,9.8
c-0.6,3.1-0.9,7.3-0.9,10.4s0.4,7,0.9,10s1.6,6.9,2.6,9.7c1,2.9,2.6,6.2,3.9,8.7c1.2,2.2,2.9,4.7,4.4,6.8c0.1,0,0.3,0,0.4,0
C58.2,132.2,58.7,132.2,58.7,132.2z"/>
<path fill="#FFFFFF" d="M51.6,132.7l-1.9-2.9l-1.9-3.3l-1.7-3.4l-1.6-3.9l-1.1-3.8l-1-3.7l-0.9-4.1l-0.4-3.9L41,99.5v-3.8l0.3-4.3
l0.5-3.8l0.7-3.8l1.1-4.2l1.2-3.7l1.5-3.6l1.7-3.5l2.1-3.8l2.1-3.2l2.3-3.1l2.5-3l2.9-3.1l2.9-2.7l3-2.5l3.5-2.6l3.3-2.1l3.4-1.9
l3.5-1.7l4-1.6l3.7-1.2l3.7-1l4.3-0.8L99,34l3.9-0.2h4.4l3.9,0.3l3.9,0.5l3.8,0.8l4.2,1.2c0,0-6.3-2.8-14.7-3.7
c-2.8-0.2-7.5-0.1-10.8,0.2c-3.1,0.3-9.2,1.5-12.9,2.7s-9.2,3.6-13,5.7c-3.6,2.1-9.3,6.3-12.7,9.5c-3.3,3.1-8.7,9.6-11.2,14.4
c-2.4,4.4-5.8,12.8-7,18.6s-1.9,15.5-1,21.6c0.8,6.1,3.4,15.4,6.2,20.8c1.4,2.8,3.6,6.2,3.7,6.5C50.3,132.8,51,132.7,51.6,132.7z"/>
<path fill="#FFFFFF" d="M56.2,132.3c-1.5-2-3-4.4-4.1-6.5c-1.4-2.7-2.9-6-4-8.8c-1-2.9-2-6.6-2.6-9.6s-0.9-7.3-1-10.4
c0-3.1,0.3-7.4,0.9-10.5c0.6-3.1,1.6-7,2.7-10c1.1-2.9,2.8-6.6,4.2-9.3c1.5-2.8,3.9-6.3,5.9-8.7c2-2.4,4.7-5.2,6.9-7.2
c2.2-2,5.4-4.2,7.7-5.8s6.1-3.4,8.5-4.5s5.9-2.3,8.4-2.9c2.5-0.6,5.6-1.3,7.8-1.6c2.4-0.4,5.7-0.5,7.8-0.6c2.2,0,4.9,0.1,6.9,0.3
c1.9,0.2,4.4,0.6,6.1,0.9s3.8,0.9,5.2,1.3c1.3,0.4,2.9,0.9,3.8,1.3c1,0.3,2.3,0.9,2.9,1.1c0.7,0.3,1.6,0.7,1.9,0.8
c0.3,0.1,0.5,0.2,0.5,0.2s-0.2-0.2-0.6-0.4c-0.4-0.2-1.4-0.7-2.2-1.1c-0.8-0.4-2.2-1-3.3-1.4c-1.2-0.5-3.3-1.2-4.8-1.7
c-1.6-0.4-4-1.1-5.9-1.4s-4.7-0.7-7-0.9c-2.2-0.1-5.8-0.2-8.2,0c-2.5,0.2-5.8,0.6-8.4,1.1c-2.7,0.5-7,1.7-9.5,2.8
c-2.8,1.1-6.6,2.9-9.1,4.3s-6.7,4.2-9,6.4c-2.5,2.1-5.7,5.3-7.8,7.9C54.5,60,51.4,64,49.7,67c-1.7,3-3.8,7.8-4.9,11.2
c-1.1,3.3-2.3,8.5-2.7,12s-0.6,8.7-0.2,12.4c0.3,3.5,1.2,8.7,2.2,12.1c1,3.4,2.9,8.3,4.4,11.4c1,1.9,2.3,4.2,3.8,6.4l0.1,0.1
C53.6,132.5,54.9,132.3,56.2,132.3z"/>
</g>
<path id="pie-02" fill="#FFFFFF" d="M156.7,134.4c0,0-1.2,0.6-1.6,0.8c-2.4,1.1-4,1.7-7,2.6c-4.3,1.4-9.8,2.1-13.3,2.1
c-3.9,0-8.9-0.1-13.2-0.3c-2.6-0.2-6.4-0.8-11.9-1.4c-3.4-0.5-13.2-1.7-15.7-2.1c-3.2-0.6-6.5-1.2-9.8-1.6c-2-0.3-4-0.5-5.9-0.8
c-0.8-0.1-1-0.1-1.9-0.2c-2.5-0.3-8.1-0.9-9.1-1c-2-0.2-3.8-0.2-5.8-0.3c-0.1,0-0.2,0-0.3,0c-1.2,0-2.5,0-3.6,0
c-0.4,0-6.3,0.4-7.9,0.8c0.7,1,1.5,2.1,2.2,3c1.6,2.2,3.2,4.1,4.4,5.4c2.7,2.8,6.1,5.7,6.3,5.9s1.3,1,2.6,2c0.7-0.4,1.4-0.7,2.2-1
h0.1c1.8-0.8,3.7-1.5,5.6-2.1c0.1,0,0.2-0.1,0.3-0.1c0.8-0.3,1.9-0.6,2.5-0.7c1-0.2,2.6-0.5,3.8-0.7c4.4-0.6,10-1,13.4-1
c6.2,0.1,16.3,1.2,24.6,1.8c6.1,0.6,12.8,0.7,17.1,0.6c1,0,3.8-0.1,4.6-0.2c3.9-0.5,8.7-1.3,13.2-3.6c0.9-1,1.7-1.8,2.4-2.8
s1.4-1.9,2-3c0.4-0.7,0.7-1.5,1-2.3C157.4,134,157.1,134.2,156.7,134.4z"/>
<path id="pie-01" fill="#FFFFFF" d="M147.1,145.3c-3.2,1.2-7.3,2.4-9.8,2.9c-3.4,0.7-9.3,1.3-14.1,1.3c-5.5,0-11-0.3-16.5-0.8
c-6.6-0.6-13.3-1.5-20-1.3c-3.3-0.1-6.5,0.2-9.5,0.7c-2.3,0.4-4.5,1.1-6.6,2h-0.1c-0.8,0.3-1.5,0.7-2.3,1.1c1.9,1.2,4.3,2.7,6.3,3.7
c2.9,1.5,8.1,3.5,11.7,4.6c1.5,0.5,3.4,0.9,5.6,1.3c2.9,0.6,6.2,1,8.6,1.2c4,0.3,10.2-0.1,14.5-0.6c4.1-0.6,10.9-2.6,14.8-4.1
c3.9-1.6,10.1-4.9,13.4-7.3c2.2-1.6,5.1-4,7.5-6.2C149.5,144.5,148.3,145,147.1,145.3"/>
</svg>
