<svg  xmlns="http://www.w3.org/2000/svg" x="0px" y="0px" viewBox="0 0 80 80">
<path fill="#FFFFFF" d="M40.2,74.2c-18.7,0-34-15.3-34-34s15.3-34,34-34s34,15.3,34,34S59,74.2,40.2,74.2z M40.2,7.3
C22,7.3,7.3,22.2,7.3,40.4s14.9,32.9,33.1,32.9s32.9-14.7,32.9-32.9C73.3,22,58.4,7.3,40.2,7.3z"/>
<path fill="#FFFFFF" d="M65.2,47.1c-1.1-2.1-5.1-2.8-7-3c-1.4-0.3-2.9-0.3-4.4-0.3c-1.1,0-2.3,0-3.4,0.1c-0.4,0-0.8,0-1.2,0.1
c-0.4-0.4-0.8-0.8-1.2-1.4c-2.5-2.9-4.5-6.2-6.1-9.8c0.4-1.7,0.8-3.4,1-5.2c0.4-3.3,0.6-7-0.7-10.2c-0.4-1.1-1.5-2.3-2.9-1.8
c-1.5,0.8-1.9,2.9-2.1,4.4c-0.1,1.2,0,2.5,0.1,3.7c0.3,1.2,0.6,2.3,1,3.6c0.3,1.1,0.7,2.1,1.1,3.2c-0.3,0.8-0.6,1.7-0.8,2.3
c-0.7,1.8-1.4,3.4-2.1,5.1c-0.4,0.8-0.7,1.7-1.1,2.3c-1.1,2.5-2.3,5-3.7,7.3c-3.2,1.1-6.1,2.5-8.5,4c-1.2,0.8-2.5,1.8-3.3,2.8
c-0.8,1-1.8,2.2-1.9,3.4c0,0.8,0.3,1.5,0.8,1.9c0.8,0.7,1.9,0.6,3,0.4c3.3-0.7,5.8-3.4,7.9-5.8c1.5-1.7,3.2-3.7,4.8-6.2l0,0
c3-1,6.2-1.7,9.6-2.3c1.5-0.3,3.2-0.4,4.8-0.7c1.1,1.1,2.5,2.1,3.7,2.9c1.1,0.7,2.2,1.2,3.4,1.7s2.3,0.7,3.7,1
c0.7,0.1,1.2,0.1,1.9,0.1c1.5,0,3.6-0.6,3.7-2.3C65.6,48.1,65.4,47.5,65.2,47.1z M30,50.4c-0.7,1.1-1.4,2.1-1.9,2.9
c-1.5,2.1-3.3,4.5-5.8,5.5c-0.4,0.1-1.1,0.4-1.8,0.3c-0.6,0-1.2-0.3-1.1-1c0-0.4,0.1-0.8,0.4-1.2c0.3-0.6,0.7-1,1.1-1.4
c0.8-0.8,1.9-1.8,3-2.5c1.8-1.2,4.1-2.3,6.6-3.3C30.3,50,30.2,50.1,30,50.4z M38.7,23.7c-0.1-1.1-0.3-2.2-0.1-3.3
c0-0.6,0.1-1.1,0.3-1.5c0.1-0.4,0.4-1.5,0.8-1.5c0.8-0.3,1,1.4,1.1,1.9c0.6,2.6,0,5.6-0.6,8.3c-0.1,0.4-0.1,0.8-0.3,1.2
c-0.1-0.6-0.4-1-0.6-1.5C39.3,25.9,38.8,24.8,38.7,23.7z M43.9,44.8c-2.9,0.4-5.6,1.1-8.3,1.8c0.3-0.1,1.8-2.8,2.1-3.3
c1.5-2.6,2.8-5.4,3.6-8.3c1.5,3,3.4,6.1,5.8,8.7c0.3,0.3,0.4,0.4,0.7,0.7C46.6,44.4,45.2,44.5,43.9,44.8z M63.5,48.3
c-0.1,0.6-1.4,1-1.9,1c-1.7,0.3-3.4,0-5.1-0.6c-1.1-0.4-2.2-0.8-3.2-1.5c-1-0.6-1.9-1.4-2.9-2.1c1.1,0,2.2-0.1,3.3-0.1
c1.1,0,2.2,0,3.3,0.3c2.1,0.3,4.4,1,6.1,2.3C63.5,47.9,63.6,48.2,63.5,48.3z"/>
</svg>
