<svg  xmlns="http://www.w3.org/2000/svg" x="0px" y="0px" viewBox="0 0 200 100">
<polygon fill="#FFFFFF" points="89.2,8.2 89.2,59.8 90.3,59.8 90.5,59.8 90.5,9 "/>
<polygon fill="#FFFFFF" points="91.8,59.8 94,59.8 94.5,59.8 94.5,11.8 91.8,10 "/>
<polygon fill="#FFFFFF" points="85.2,5.3 85.2,59.8 87.3,59.8 87.9,59.8 87.9,7.2 "/>
<polygon fill="#FFFFFF" points="103.9,18.3 103.9,72.1 105,72.1 105.2,72.1 105.2,19.3 "/>
<polygon fill="#FFFFFF" points="106.6,72.1 108.7,72.1 109.2,72.1 109.2,22 106.6,20.1 "/>
<polygon fill="#FFFFFF" points="99.9,15.5 99.9,72.1 102,72.1 102.5,72.1 102.5,17.4 "/>
<path fill="#FFFFFF" d="M117.1,6.1c-3.4-1.7-7.2-2.7-11.3-2.7h-21l13.4,9.3h7.6c8.6,0,15.7,7,15.7,15.7c0,0.1,0,0.3,0,0.4v0.6
c-0.4,5.7-3.8,10.5-8.7,13c-1.1,0.8-1.9,3.5-1.7,5.7c0,0,0.1,4.9,5,3.7c8.9-3.9,15-12.8,15-23.2C131,18.8,125.4,10.3,117.1,6.1"/>
<path fill="#FFFFFF" d="M88.4,62.8c-8.6,0-15.7-7-15.7-15.7c0-0.1,0-0.3,0-0.4v-0.6c0.4-5.7,3.8-10.5,8.7-13
c1.1-0.8,1.9-3.5,1.7-5.7c0,0-0.1-4.9-5-3.7c-8.9,3.9-15,12.8-15,23.2c0,9.9,5.7,18.5,14,22.6c3.4,1.7,7.2,2.7,11.3,2.7h10.2v-9.3
L88.4,62.8L88.4,62.8z"/>
<path fill="#FFFFFF" d="M59.6,78.2h3.1c1.2,0,2.2,0.2,2.8,0.5c0.6,0.4,1.2,0.9,1.6,1.6c0.5,0.7,0.7,1.7,0.7,2.8
c0,1.4-0.4,2.6-1.2,3.6c-0.9,0.9-2,1.4-3.5,1.4h-3.4L59.6,78.2L59.6,78.2z M61.8,80v6.3h1c0.9,0,1.5-0.3,1.9-0.9
c0.4-0.6,0.6-1.4,0.6-2.2c0-0.6-0.1-1.2-0.4-1.7s-0.5-0.9-0.9-1.1c-0.4-0.2-0.7-0.3-1.2-0.3L61.8,80L61.8,80z"/>
<path fill="#FFFFFF" d="M73.9,78.2l3.1,10h-2.5l-0.6-2.1h-3.2L70,88.2h-2.1l3.2-10H73.9z M71.2,84.3h2.1l-1.1-3.5L71.2,84.3z"/>
<polygon fill="#FFFFFF" points="83.6,78.2 83.6,80.2 81.2,80.2 81.2,88.2 78.8,88.2 78.8,80.2 76.3,80.2 76.3,78.2 "/>
<path fill="#FFFFFF" d="M90.8,84.5v3.7h-2.4v-10h3.9c0.9,0,1.6,0.1,2,0.3c0.4,0.2,0.9,0.5,1.2,1c0.4,0.5,0.6,1.1,0.6,1.8
c0,0.5-0.1,1-0.3,1.4c-0.2,0.5-0.5,0.8-0.8,1.1c-0.4,0.2-0.7,0.4-1.1,0.6c-0.3,0.1-0.9,0.1-1.6,0.1h-1.6V84.5z M90.7,82.6h1.5
c0.6,0,1-0.1,1.2-0.4c0.2-0.2,0.4-0.6,0.4-0.9s-0.1-0.7-0.4-0.9c-0.2-0.2-0.7-0.4-1.2-0.4h-1.5L90.7,82.6L90.7,82.6z"/>
<polygon fill="#FFFFFF" points="105.1,78.2 105.1,88.2 102.9,88.2 102.9,84 99.8,84 99.8,88.2 97.5,88.2 97.5,78.2 99.8,78.2 
99.8,82 102.9,82 102.9,78.2 "/>
<path fill="#FFFFFF" d="M115.1,78.2v6.2c0,1-0.1,1.7-0.4,2.2c-0.2,0.5-0.6,0.9-1.2,1.2c-0.6,0.3-1.4,0.5-2.4,0.5
c-0.9,0-1.7-0.1-2.3-0.4c-0.6-0.3-1-0.7-1.2-1.2c-0.3-0.5-0.4-1.3-0.4-2.3v-6.2h2.6v6.2c0,0.6,0.1,0.9,0.1,1.2s0.2,0.4,0.6,0.6
c0.2,0.1,0.6,0.2,1,0.2c0.4,0,0.8-0.1,1.1-0.2c0.2-0.1,0.4-0.3,0.6-0.6c0.1-0.2,0.1-0.6,0.1-1.2v-6.2L115.1,78.2L115.1,78.2z"/>
<path fill="#FFFFFF" d="M120.7,88.4c-1.4,0-2.4-0.5-3.1-1.5c-0.7-1-1.1-2.2-1.1-3.7c0-1.4,0.4-2.7,1.1-3.7c0.7-1,1.8-1.4,3.2-1.4
c1.4,0,2.4,0.5,3.2,1.6c0.7,1.1,1.1,2.2,1.1,3.6c0,1.4-0.4,2.7-1.1,3.7C123.2,87.9,122.1,88.4,120.7,88.4 M120.7,79.9
c-1.2,0-1.9,1.1-1.9,3.2c0,2.2,0.6,3.2,1.9,3.2c1.2,0,1.8-1.1,1.8-3.2C122.6,81,121.9,79.9,120.7,79.9"/>
<path fill="#FFFFFF" d="M134.6,81.9l-2.4,0.1c-0.1-1.4-0.6-2.1-1.6-2.1c-1.2,0-1.8,1.1-1.8,3.2c0,1.2,0.2,2.1,0.5,2.6
c0.3,0.4,0.8,0.7,1.4,0.7c1,0,1.6-0.6,1.7-1.9l2.2,0.1c-0.1,1.2-0.6,2.1-1.3,2.7s-1.7,0.9-2.7,0.9c-1.3,0-2.4-0.4-3.2-1.4
c-0.8-0.9-1.2-2.2-1.2-3.8c0-1.5,0.4-2.7,1.2-3.7c0.8-0.9,1.9-1.4,3.3-1.4C132.9,78,134.3,79.3,134.6,81.9"/>
<rect x="59.6" y="91.2" fill="#FFFFFF" width="1.1" height="4.6"/>
<path fill="#FFFFFF" d="M66.4,91.2v4.6h-0.9l-1.8-3.1c0,0.1,0,0.1,0,0.1c0,0.1,0,0.1,0,0.2v2.7h-0.8v-4.6h1.2l1.6,2.7
c0-0.1,0-0.2,0-0.3v-2.4H66.4z"/>
<polygon fill="#FFFFFF" points="72.1,91.2 70.7,95.8 69.6,95.8 68.2,91.2 69.3,91.2 70.3,94.5 71.2,91.2 "/>
<polygon fill="#FFFFFF" points="77.1,92.1 74.9,92.1 74.9,93 76.7,93 76.7,93.8 74.9,93.8 74.9,94.8 77.1,94.8 77.1,95.8 73.9,95.8 
73.9,91.2 77.1,91.2 "/>
<path fill="#FFFFFF" d="M82.3,92.2l-0.9,0.3C81.2,92.2,81,92,80.6,92c-0.4,0-0.6,0.1-0.6,0.4c0,0.1,0.1,0.2,0.1,0.2
c0.1,0.1,0.2,0.1,0.6,0.2c0.4,0.1,0.8,0.2,1,0.3c0.2,0.1,0.4,0.2,0.6,0.4c0.1,0.2,0.2,0.4,0.2,0.7c0,0.4-0.2,0.7-0.5,1.1
c-0.3,0.3-0.8,0.4-1.4,0.4c-0.4,0-0.9-0.1-1.2-0.3c-0.3-0.2-0.6-0.5-0.6-0.9l1-0.2c0.1,0.4,0.4,0.6,0.9,0.6c0.2,0,0.4-0.1,0.6-0.1
c0.1-0.1,0.2-0.2,0.2-0.3c0-0.1-0.1-0.2-0.2-0.3c-0.1-0.1-0.3-0.1-0.6-0.2c-0.6-0.1-1-0.3-1.2-0.5C79.1,93.3,79,93,79,92.5
c0-0.4,0.1-0.7,0.4-1c0.3-0.2,0.7-0.4,1.2-0.4C81.4,91.1,82,91.5,82.3,92.2"/>
<polygon fill="#FFFFFF" points="87.4,91.2 87.4,92.1 86.3,92.1 86.3,95.8 85.2,95.8 85.2,92.1 84,92.1 84,91.2 "/>
<polygon fill="#FFFFFF" points="91.2,95.8 90.1,92 90.1,95.8 89.2,95.8 89.2,91.2 90.9,91.2 91.7,93.9 92.5,91.2 94.2,91.2 
94.2,95.8 93.1,95.8 93.1,92 92,95.8 "/>
<polygon fill="#FFFFFF" points="99.7,92.1 97.6,92.1 97.6,93 99.3,93 99.3,93.8 97.6,93.8 97.6,94.8 99.7,94.8 99.7,95.8 96.5,95.8 
96.5,91.2 99.7,91.2 "/>
<path fill="#FFFFFF" d="M105.3,91.2v4.6h-0.9l-1.8-3.1c0,0.1,0,0.1,0,0.1c0,0.1,0,0.1,0,0.2v2.7h-0.8v-4.6h1.1l1.6,2.7
c0-0.1,0-0.2,0-0.3v-2.4H105.3z"/>
<polygon fill="#FFFFFF" points="110.4,91.2 110.4,92.1 109.3,92.1 109.3,95.8 108.2,95.8 108.2,92.1 107.1,92.1 107.1,91.2 "/>
<path fill="#FFFFFF" d="M117.1,91.2v3.2c0,0.4-0.1,0.8-0.3,1.1c-0.2,0.2-0.6,0.3-1.1,0.3c-0.2,0-0.4,0-0.7-0.1v-0.9
c0.2,0.1,0.4,0.1,0.6,0.1c0.1,0,0.2,0,0.3-0.1c0.1-0.1,0.1-0.1,0.2-0.2s0.1-0.2,0.1-0.4v-3.1L117.1,91.2L117.1,91.2z"/>
<rect x="119.2" y="94.7" fill="#FFFFFF" width="1.1" height="1.1"/>
<path fill="#FFFFFF" d="M125.6,92.2l-0.9,0.3c-0.1-0.4-0.4-0.6-0.7-0.6c-0.4,0-0.6,0.1-0.6,0.4c0,0.1,0.1,0.2,0.1,0.2
s0.2,0.1,0.6,0.2c0.4,0.1,0.8,0.2,1,0.3c0.2,0.1,0.4,0.2,0.6,0.4c0.1,0.2,0.2,0.4,0.2,0.7c0,0.4-0.2,0.7-0.5,1.1
c-0.3,0.3-0.8,0.4-1.4,0.4c-0.4,0-0.9-0.1-1.2-0.3c-0.3-0.2-0.6-0.5-0.6-0.9l1-0.2c0.1,0.4,0.4,0.6,0.9,0.6c0.2,0,0.4-0.1,0.6-0.1
c0.1-0.1,0.2-0.2,0.2-0.3c0-0.1-0.1-0.2-0.2-0.3c-0.1-0.1-0.3-0.1-0.6-0.2c-0.6-0.1-1-0.3-1.2-0.5c-0.2-0.2-0.4-0.5-0.4-0.9
c0-0.4,0.1-0.7,0.4-1c0.3-0.2,0.7-0.4,1.2-0.4C124.7,91.1,125.3,91.5,125.6,92.2"/>
<rect x="127.7" y="94.7" fill="#FFFFFF" width="1.1" height="1.1"/>
<path fill="#FFFFFF" d="M134.6,92.9l-1.1,0.1c0-0.6-0.2-0.9-0.7-0.9c-0.6,0-0.8,0.5-0.8,1.5c0,0.6,0.1,0.9,0.2,1.2
c0.1,0.2,0.4,0.3,0.6,0.3c0.4,0,0.7-0.3,0.8-0.9l1.1,0.1c-0.1,0.6-0.2,0.9-0.6,1.2c-0.3,0.3-0.7,0.4-1.2,0.4c-0.6,0-1.1-0.2-1.5-0.6
c-0.4-0.4-0.6-1-0.6-1.7c0-0.7,0.2-1.2,0.6-1.7c0.4-0.4,0.9-0.7,1.5-0.7C133.8,91.1,134.5,91.7,134.6,92.9"/>
</svg>
